<svg width="18" height="21" viewBox="0 0 18 21" fill="none" xmlns="http://www.w3.org/2000/svg">
<path d="M18 14.4643V0.964286C18 0.429911 17.5701 0 17.0357 0H3.85714C1.72768 0 0 1.72768 0 3.85714V16.7143C0 18.8437 1.72768 20.5714 3.85714 20.5714H17.0357C17.5701 20.5714 18 20.1415 18 19.6071V18.9643C18 18.6629 17.8594 18.3897 17.6424 18.2129C17.4737 17.5942 17.4737 15.8304 17.6424 15.2116C17.8594 15.0388 18 14.7656 18 14.4643ZM5.14286 5.38393C5.14286 5.25134 5.25134 5.14286 5.38393 5.14286H13.9018C14.0344 5.14286 14.1429 5.25134 14.1429 5.38393V6.1875C14.1429 6.32009 14.0344 6.42857 13.9018 6.42857H5.38393C5.25134 6.42857 5.14286 6.32009 5.14286 6.1875V5.38393ZM5.14286 7.95536C5.14286 7.82277 5.25134 7.71428 5.38393 7.71428H13.9018C14.0344 7.71428 14.1429 7.82277 14.1429 7.95536V8.75893C14.1429 8.89152 14.0344 9 13.9018 9H5.38393C5.25134 9 5.14286 8.89152 5.14286 8.75893V7.95536ZM15.3241 18H3.85714C3.14598 18 2.57143 17.4254 2.57143 16.7143C2.57143 16.0071 3.15 15.4286 3.85714 15.4286H15.3241C15.2478 16.1156 15.2478 17.3129 15.3241 18Z" fill="#144590"/>
</svg>
