<svg width="20" height="17" viewBox="0 0 20 17" fill="none" xmlns="http://www.w3.org/2000/svg">
<path d="M17.4711 4.61452C17.4831 4.78283 17.4831 4.95117 17.4831 5.11948C17.4831 10.2531 13.576 16.1683 6.43503 16.1683C4.23503 16.1683 2.19133 15.5311 0.472198 14.4251C0.784778 14.4611 1.08529 14.4731 1.4099 14.4731C3.22517 14.4731 4.89623 13.86 6.23065 12.814C4.52355 12.7779 3.09295 11.6598 2.60005 10.1209C2.8405 10.157 3.08092 10.181 3.33341 10.181C3.68203 10.181 4.03069 10.1329 4.35525 10.0488C2.57603 9.68808 1.24156 8.12515 1.24156 6.23759V6.18951C1.75848 6.47806 2.35963 6.6584 2.99674 6.68241C1.95083 5.98508 1.26562 4.79485 1.26562 3.4483C1.26562 2.72696 1.45793 2.06571 1.79456 1.48862C3.70604 3.84506 6.57928 5.38394 9.80109 5.55228C9.741 5.26374 9.70492 4.9632 9.70492 4.66263C9.70492 2.52257 11.4361 0.779297 13.588 0.779297C14.706 0.779297 15.7158 1.24818 16.4251 2.00561C17.3027 1.8373 18.1442 1.51267 18.8896 1.06784C18.601 1.96956 17.9879 2.72699 17.1825 3.20787C17.9639 3.12375 18.7213 2.90729 19.4186 2.60676C18.8897 3.37618 18.2284 4.06144 17.4711 4.61452Z" fill="#144590"/>
</svg>
