<!-- Generated by IcoMoon.io -->
<svg version="1.1" xmlns="http://www.w3.org/2000/svg" width="1159" height="512" viewBox="0 0 1159 512">
<title></title>
<g id="icomoon-ignore">
</g>
<path fill="#961a1f" d="M367.598 51.090h-97.269c-42.987 2.033-78.125 19.402-88.272 55.21-5.284 18.685-8.202 39.192-12.337 58.547-21.031 98.443-39.672 199.579-59.788 296.050h757.347c58.559 0 98.757-12.409 109.63-59.019 5.049-21.659 9.878-46.184 14.716-69.971 18.817-92.755 37.655-185.5 56.93-280.819h-680.957z"></path>
<path fill="#fff" d="M759.089 295.736c-10.51 10.329-40.024 13.255-37.012-11.423 2.52-20.495 24.756-24.856 48.88-21.893-1.803 11.209-3.842 25.454-11.869 33.315zM725.872 215.778c-1.009 5.652-2.543 10.776-3.796 16.182 12.045-3.032 49.537-12.316 53.145 3.807 1.194 5.358-0.855 11.047-2.366 15.231-33.907-3.22-61.534 2.42-68.81 26.652-4.863 16.23 0.549 32.2 10.909 36.654 19.976 8.578 44.276-1.245 52.677-14.76-0.867 4.677-1.699 9.401-1.431 15.231h17.563c0.188-16.864 2.635-30.52 5.225-45.692 2.202-12.926 6.35-25.725 5.694-37.124-1.51-26.125-44.65-16.887-68.81-16.182v0zM901.923 303.82c-13.732 0.305-20.563-8.226-20.879-22.365-0.551-24.76 10.288-52.271 32.266-54.739 10.24-1.139 17.657 1.245 25.156 3.82-6.879 27.805-4.394 72.602-36.543 73.283v0zM947.477 172.941c-1.733 15.372-4.089 30.167-7.112 44.257-50.052-15.888-80.748 21.047-80.197 66.644 0.117 8.815 1.628 17.557 7.111 23.798 9.479 10.741 36.614 13.315 50.311 4.277 2.648-1.738 5.355-4.923 7.124-7.134 1.313-1.668 3.41-6.017 3.785-4.759-0.715 4.83-1.793 9.307-1.886 14.749h18.5c3.573-51.32 14.598-95.155 22.776-141.833h-20.41zM425.019 296.219c-10.909 11.587-37.75 11.423-39.859-8.098-0.913-8.496 2.238-17.392 3.796-26.171 1.581-8.896 2.719-17.428 4.264-25.232 10.756-13.173 42.356-14.76 45.553 7.133 2.789 19.015-4.71 42.753-13.755 52.366v0zM441.153 215.778c-17.27-6.512-38.313 1.258-47.452 8.648 0.035 0.317-0.21 0.363-0.481 0.387l0.481-0.387c0-0.023 0-0.047-0.011-0.082 0.163-3.185 1.277-5.395 1.441-8.566h-17.562c-7.324 48.828-15.993 96.282-25.144 143.265h20.398c2.954-18.297 4.897-37.594 9.022-54.74 4.651 18.028 35.078 14.584 47.933 7.615 26.478-14.361 46.911-82.756 11.376-96.141v0zM537.966 250.044h-47.933c1.512-11.058 11.436-23.197 27.053-23.797 14.692-0.564 25.214 5.405 20.879 23.797zM518.505 213.874c-14.751 1.139-27.206 5.393-36.063 14.76-10.861 11.47-19.66 36.853-17.082 59.969 3.666 32.976 44.605 31.788 77.34 23.785 0.563-5.781 1.957-10.729 2.847-16.169-13.486 5.065-36.895 12.127-50.779 3.327-10.464-6.64-10.522-23.457-7.112-38.076 22.003-0.705 44.874-0.564 66.912 0 1.394-10.353 5.402-21.659 1.899-31.882-4.616-13.514-21.149-17.017-37.962-15.712v0zM339.126 215.778c-0.551 0.081-0.515 0.751-0.469 1.421-4.498 33.727-10.591 65.858-17.082 97.576h20.399c4.909-33.952 10.522-67.185 17.551-98.997h-20.399zM871.566 216.248c-18.043-9.038-33.063 6.134-38.922 15.231 1.675-4.665 1.77-10.917 3.327-15.7h-18.043c-4.863 33.986-10.721 66.985-17.552 98.997h20.879c0.13-13.115 2.695-22.822 4.745-35.691 4.357-27.475 10.766-57.607 42.706-48.546 1.066-4.654 1.5-9.93 2.859-14.29zM642.359 291.458c-1.886-4.877-2.366-12.926-1.899-19.038 1.054-13.76 6.058-30.506 13.767-38.087 10.639-10.46 31.645-8.719 48.4-2.855 0.515-5.664 1.642-10.706 2.366-16.183-27.475-4.5-53.554-1.691-67.381 12.857-13.533 14.244-22.402 46.983-16.133 67.584 7.346 24.103 40.245 25.419 66.913 16.182 1.172-4.841 1.793-10.248 2.846-15.231-14.563 7.591-42.413 11.529-48.88-5.229v0zM630.957 215.778c-18.077-7.334-32.302 5.053-38.899 16.652 1.489-5.158 2.11-11.199 3.316-16.652h-18.030c-4.404 34.29-10.896 66.49-17.082 98.997h20.399c2.871-19.298 4.101-45.316 10.45-63.778 5.074-14.749 18.348-27.322 37.481-20.46 0.282-5.453 1.828-9.602 2.366-14.76v0zM302.114 175.785c-2.905 18.978-6.197 37.582-9.49 56.174-21.136 0.224-42.718 1.047-63.116-0.482 3.855-18.192 6.619-37.465 10.44-55.692h-22.764c-8.167 46.408-15.584 93.544-24.687 138.989h23.257c3.644-23.305 7.053-46.865 11.857-69.007 19.835-0.494 43.585-1.352 62.637 0.47-3.925 23.033-8.669 45.244-12.326 68.537h23.246c7.476-47.077 15.348-93.755 24.674-138.989h-23.726zM360.005 196.739c4.066-2.821 9.303-15.619 3.327-20.954-1.899-1.68-5.075-2.174-9.49-1.422-4.101 0.695-6.469 2.103-8.072 4.289-2.577 3.513-4.933 14.137-0.95 18.088 3.89 3.842 12.594 1.786 15.183 0z"></path>
</svg>
