<svg width="24" height="25" viewBox="0 0 24 25" fill="none" xmlns="http://www.w3.org/2000/svg">
  <path d="M12.79 21.7176L3 11.9276V13.9276C3 14.4576 3.21 14.9676 3.59 15.3376L11.38 23.1276C12.16 23.9076 13.43 23.9076 14.21 23.1276L20.42 16.9176C21.2 16.1376 21.2 14.8676 20.42 14.0876L12.79 21.7176Z" fill="#3E3F42"/>
  <path d="M11.38 18.1277C12.16 18.9077 13.43 18.9077 14.21 18.1277L20.42 11.9177C21.2 11.1377 21.2 9.86765 20.42 9.08765L12.63 1.29765C12.2501 0.926953 11.7408 0.718897 11.21 0.717651L5 0.717651C3.9 0.717651 3 1.61765 3 2.71765V8.92765C3 9.45765 3.21 9.96765 3.59 10.3377L11.38 18.1277ZM7.25 3.71765C7.58152 3.71765 7.89946 3.84935 8.13388 4.08377C8.3683 4.31819 8.5 4.63613 8.5 4.96765C8.5 5.29917 8.3683 5.61711 8.13388 5.85153C7.89946 6.08596 7.58152 6.21765 7.25 6.21765C6.91848 6.21765 6.60054 6.08596 6.36612 5.85153C6.1317 5.61711 6 5.29917 6 4.96765C6 4.63613 6.1317 4.31819 6.36612 4.08377C6.60054 3.84935 6.91848 3.71765 7.25 3.71765Z" fill="#3E3F42"/>
</svg>
