<svg width="42" height="26" viewBox="0 0 42 26" fill="none" xmlns="http://www.w3.org/2000/svg">
  <rect y="2" width="42" height="22" rx="4" fill="#a94c86"/>
  <path d="M10.264 8.2C11.5147 8.2 12.4947 8.49867 13.204 9.096C13.9133 9.69333 14.268 10.5147 14.268 11.56C14.268 12.6053 13.9133 13.4267 13.204 14.024C12.4947 14.612 11.5147 14.906 10.264 14.906H7.632V18H6.596V8.2H10.264ZM10.236 13.996C11.2067 13.996 11.9487 13.786 12.462 13.366C12.9753 12.9367 13.232 12.3347 13.232 11.56C13.232 10.7667 12.9753 10.16 12.462 9.74C11.9487 9.31067 11.2067 9.096 10.236 9.096H7.632V13.996H10.236ZM17.2081 8.2H21.1981C22.2341 8.2 23.1488 8.41 23.9421 8.83C24.7354 9.24067 25.3514 9.81933 25.7901 10.566C26.2288 11.3033 26.4481 12.148 26.4481 13.1C26.4481 14.052 26.2288 14.9013 25.7901 15.648C25.3514 16.3853 24.7354 16.964 23.9421 17.384C23.1488 17.7947 22.2341 18 21.1981 18H17.2081V8.2ZM21.1421 17.104C22.0008 17.104 22.7521 16.936 23.3961 16.6C24.0401 16.2547 24.5394 15.7833 24.8941 15.186C25.2488 14.5793 25.4261 13.884 25.4261 13.1C25.4261 12.316 25.2488 11.6253 24.8941 11.028C24.5394 10.4213 24.0401 9.95 23.3961 9.614C22.7521 9.26867 22.0008 9.096 21.1421 9.096H18.2441V17.104H21.1421ZM30.5105 9.096V12.946H35.5785V13.842H30.5105V18H29.4745V8.2H36.1945V9.096H30.5105Z" fill="white"/>
</svg>
