<svg width="25" height="17" viewBox="0 0 25 17" fill="none" xmlns="http://www.w3.org/2000/svg">
  <path d="M14.592 0H2.07465C0.928819 0 0 0.92882 0 2.07465V14.592C0 15.7378 0.928819 16.6667 2.07465 16.6667H14.592C15.7378 16.6667 16.6667 15.7378 16.6667 14.592V2.07465C16.6667 0.92882 15.7378 0 14.592 0ZM22.8125 1.63628L18.0556 4.91754V11.7491L22.8125 15.026C23.7326 15.6597 25 15.013 25 13.9062V2.75608C25 1.65365 23.737 1.0026 22.8125 1.63628Z" fill="#151618"/>
</svg>
